^C:\USERS\USER\DOCUMENTS\VISUAL STUDIO 2013\PROJECTS\EX16\EX16\DEBUG\SOURCE.OBJ|C:\USERS\USER\DOCUMENTS\VISUAL STUDIO 2013\PROJECTS\EX16\EX16\DEBUG\SQLITE3.OBJ
/OUT:"C:\USERS\USER\DOCUMENTS\VISUAL STUDIO 2013\PROJECTS\EX16\DEBUG\EX16.EXE" /INCREMENTAL /NOLOGO kernel32.lib user32.lib gdi32.lib winspool.lib comdlg32.lib advapi32.lib shell32.lib ole32.lib oleaut32.lib uuid.lib odbc32.lib odbccp32.lib /MANIFEST /MANIFESTUAC:"level='asInvoker' uiAccess='false'" /manifest:embed /DEBUG /PDB:"C:\USERS\USER\DOCUMENTS\VISUAL STUDIO 2013\PROJECTS\EX16\DEBUG\EX16.PDB" /TLBID:1 /DYNAMICBASE /NXCOMPAT /IMPLIB:"C:\USERS\USER\DOCUMENTS\VISUAL STUDIO 2013\PROJECTS\EX16\DEBUG\EX16.LIB" /MACHINE:X86 DEBUG\SOURCE.OBJDEBUG\SQLITE3.OBJ
^C:\USERS\USER\DOCUMENTS\VISUAL STUDIO 2013\PROJECTS\DOR_PROJECTS\EX16\EX16\DEBUG\SOURCE.OBJ|C:\USERS\USER\DOCUMENTS\VISUAL STUDIO 2013\PROJECTS\DOR_PROJECTS\EX16\EX16\DEBUG\SQLITE3.OBJ
/OUT:"C:\USERS\USER\DOCUMENTS\VISUAL STUDIO 2013\PROJECTS\DOR_PROJECTS\EX16\DEBUG\EX16.EXE" /INCREMENTAL /NOLOGO kernel32.lib user32.lib gdi32.lib winspool.lib comdlg32.lib advapi32.lib shell32.lib ole32.lib oleaut32.lib uuid.lib odbc32.lib odbccp32.lib /MANIFEST /MANIFESTUAC:"level='asInvoker' uiAccess='false'" /manifest:embed /DEBUG /PDB:"C:\USERS\USER\DOCUMENTS\VISUAL STUDIO 2013\PROJECTS\DOR_PROJECTS\EX16\DEBUG\EX16.PDB" /TLBID:1 /DYNAMICBASE /NXCOMPAT /IMPLIB:"C:\USERS\USER\DOCUMENTS\VISUAL STUDIO 2013\PROJECTS\DOR_PROJECTS\EX16\DEBUG\EX16.LIB" /MACHINE:X86 DEBUG\SOURCE.OBJDEBUG\SQLITE3.OBJ
